Data Wrangling Project
…
glimpse(ratings)

## Observations: 100,836
## Variables: 4
## $ userId    <dbl> 1, 1, 1, 1, 1, 1, 1, 1, 1, 1, 1, 1, 1, 1, 1, 1, 1, 1, 1, 1,
## $ movieId   <dbl> 1, 3, 6, 47, 50, 70, 101, 110, 151, 157, 163, 216, 223, 231
## $ rating    <dbl> 4, 4, 4, 5, 5, 3, 5, 4, 5, 5, 5, 5, 3, 5, 4, 5, 3, 3, 5, 4,
## $ timestamp <dbl> 964982703, 964981247, 964982224, 964983815, 964982931, 9649

ratings <- ratings %>%
  mutate(timestamp = as_datetime(timestamp))

ratings

## # A tibble: 100,836 x 4
##    userId movieId rating timestamp          
##     <dbl>   <dbl>  <dbl> <dttm>             
##  1      1       1      4 2000-07-30 18:45:03
##  2      1       3      4 2000-07-30 18:20:47
##  3      1       6      4 2000-07-30 18:37:04
##  4      1      47      5 2000-07-30 19:03:35
##  5      1      50      5 2000-07-30 18:48:51
##  6      1      70      3 2000-07-30 18:40:00
##  7      1     101      5 2000-07-30 18:14:28
##  8      1     110      4 2000-07-30 18:36:16
##  9      1     151      5 2000-07-30 19:07:21
## 10      1     157      5 2000-07-30 19:08:20
## #  with 100,826 more rows
…
glimpse(movies1)

## Observations: 9,742
## Variables: 3
## $ movieId <dbl> 1, 2, 3, 4, 5, 6, 7, 8, 9, 10, 11, 12, 13, 14, 15, 16, 17, 18
## $ title   <chr> "Toy Story (1995)", "Jumanji (1995)", "Grumpier Old Men (1995
## $ genres  <chr> "Adventure|Animation|Children|Comedy|Fantasy", "Adventure|Chi

movies1

## # A tibble: 9,742 x 3
##    movieId title                           genres                               
##      <dbl> <chr>                           <chr>                                
##  1       1 Toy Story (1995)                Adventure|Animation|Children|Comedy|
##  2       2 Jumanji (1995)                  Adventure|Children|Fantasy           
##  3       3 Grumpier Old Men (1995)         Comedy|Romance                       
##  4       4 Waiting to Exhale (1995)        Comedy|Drama|Romance                 
##  5       5 Father of the Bride Part II (1 Comedy                               
##  6       6 Heat (1995)                     Action|Crime|Thriller                
##  7       7 Sabrina (1995)                  Comedy|Romance                       
##  8       8 Tom and Huck (1995)             Adventure|Children                   
##  9       9 Sudden Death (1995)             Action                               
## 10      10 GoldenEye (1995)                Action|Adventure|Thriller            
## #  with 9,732 more rows

movies <- movies1 %>%
  tidyr::extract(title, c("titles", "year"), regex = "^(.*) \\(([0-9 \\-]*)\\)$", remove = F) %>%
  mutate(year = as.integer(year)) %>% 
           select(-title) 

movies

## # A tibble: 9,742 x 4
##    movieId titles                     year genres                               
##      <dbl> <chr>                     <int> <chr>                                
##  1       1 Toy Story                  1995 Adventure|Animation|Children|Comedy|
##  2       2 Jumanji                    1995 Adventure|Children|Fantasy           
##  3       3 Grumpier Old Men           1995 Comedy|Romance                       
##  4       4 Waiting to Exhale          1995 Comedy|Drama|Romance                 
##  5       5 Father of the Bride Part  1995 Comedy                               
##  6       6 Heat                       1995 Action|Crime|Thriller                
##  7       7 Sabrina                    1995 Comedy|Romance                       
##  8       8 Tom and Huck               1995 Adventure|Children                   
##  9       9 Sudden Death               1995 Action                               
## 10      10 GoldenEye                  1995 Action|Adventure|Thriller            
## #  with 9,732 more rows
…
glimpse(tags)

## Observations: 3,683
## Variables: 4
## $ userId    <dbl> 2, 2, 2, 2, 2, 2, 2, 2, 2, 7, 18, 18, 18, 18, 18, 18, 18, 1
## $ movieId   <dbl> 60756, 60756, 60756, 89774, 89774, 89774, 106782, 106782, 1
## $ tag       <chr> "funny", "Highly quotable", "will ferrell", "Boxing story",
## $ timestamp <dbl> 1445714994, 1445714996, 1445714992, 1445715207, 1445715200,

tags <- tags %>%
  mutate(timestamp = as_datetime(timestamp))

tags

## # A tibble: 3,683 x 4
##    userId movieId tag               timestamp          
##     <dbl>   <dbl> <chr>             <dttm>             
##  1      2   60756 funny             2015-10-24 19:29:54
##  2      2   60756 Highly quotable   2015-10-24 19:29:56
##  3      2   60756 will ferrell      2015-10-24 19:29:52
##  4      2   89774 Boxing story      2015-10-24 19:33:27
##  5      2   89774 MMA               2015-10-24 19:33:20
##  6      2   89774 Tom Hardy         2015-10-24 19:33:25
##  7      2  106782 drugs             2015-10-24 19:30:54
##  8      2  106782 Leonardo DiCaprio 2015-10-24 19:30:51
##  9      2  106782 Martin Scorsese   2015-10-24 19:30:56
## 10      7   48516 way too long      2007-01-25 01:08:45
## #  with 3,673 more rows
…
get_movies <- function(year1){
  movies %>% 
    select(titles,year) %>% 
    group_by(year,titles) %>% 
    filter(year==year1)
}

get_movies(1995)

## # A tibble: 259 x 2
## # Groups:   year, titles [259]
##    titles                       year
##    <chr>                       <int>
##  1 Toy Story                    1995
##  2 Jumanji                      1995
##  3 Grumpier Old Men             1995
##  4 Waiting to Exhale            1995
##  5 Father of the Bride Part II  1995
##  6 Heat                         1995
##  7 Sabrina                      1995
##  8 Tom and Huck                 1995
##  9 Sudden Death                 1995
## 10 GoldenEye                    1995
## #  with 249 more rows
…
#Average rating for a movie
avg_rating <- movielens %>%
  na.omit() %>%
  select(movieId, titles, rating) %>%
  group_by(movieId,titles) %>%
  summarise(count = n(), mean = mean(rating), min = min(rating), max = max(rating)) %>%
  arrange(desc(count))

avg_rating

## # A tibble: 9,711 x 6
## # Groups:   movieId [9,711]
##    movieId titles                             count  mean   min   max
##      <dbl> <chr>                              <int> <dbl> <dbl> <dbl>
##  1     356 Forrest Gump                         329  4.16   0.5     5
##  2     318 Shawshank Redemption, The            317  4.43   1       5
##  3     296 Pulp Fiction                         307  4.20   0.5     5
##  4     593 Silence of the Lambs, The            279  4.16   0.5     5
##  5    2571 Matrix, The                          278  4.19   0.5     5
##  6     260 Star Wars: Episode IV - A New Hope   251  4.23   0.5     5
##  7     480 Jurassic Park                        238  3.75   0.5     5
##  8     110 Braveheart                           237  4.03   0.5     5
##  9     589 Terminator 2: Judgment Day           224  3.97   0.5     5
## 10     527 Schindler's List                     220  4.22   0.5     5
## #  with 9,701 more rows
…
